EESchema Schematic File Version 4
LIBS:Ovladač televize-cache
EELAYER 26 0
EELAYER END
$Descr A4 11693 8268
encoding utf-8
Sheet 1 1
Title ""
Date ""
Rev ""
Comp ""
Comment1 ""
Comment2 ""
Comment3 ""
Comment4 ""
$EndDescr
$Comp
L MCU_Microchip_ATmega:ATmega328-PU U1
U 1 1 5CF03971
P 4250 3500
F 0 "U1" H 3609 3546 50  0000 R CNN
F 1 "ATmega328-PU" H 3609 3455 50  0000 R CNN
F 2 "Package_DIP:DIP-28_W7.62mm" H 4250 3500 50  0001 C CIN
F 3 "http://ww1.microchip.com/downloads/en/DeviceDoc/ATmega328_P%20AVR%20MCU%20with%20picoPower%20Technology%20Data%20Sheet%2040001984A.pdf" H 4250 3500 50  0001 C CNN
	1    4250 3500
	1    0    0    -1  
$EndComp
$Comp
L Device:Crystal Y1
U 1 1 5CF03A94
P 5900 3250
F 0 "Y1" H 5900 2982 50  0000 C CNN
F 1 "Crystal" H 5900 3073 50  0000 C CNN
F 2 "Crystal:Crystal_HC49-4H_Vertical" H 5900 3250 50  0001 C CNN
F 3 "~" H 5900 3250 50  0001 C CNN
	1    5900 3250
	0    1    1    0   
$EndComp
Wire Wire Line
	4850 3000 5550 3000
$Comp
L Device:C 22pF1
U 1 1 5CF03CC3
P 5250 3250
F 0 "22pF1" H 5365 3296 50  0000 L CNN
F 1 "C" H 5365 3205 50  0000 L CNN
F 2 "Capacitor_THT:C_Disc_D3.0mm_W1.6mm_P2.50mm" H 5288 3100 50  0001 C CNN
F 3 "~" H 5250 3250 50  0001 C CNN
	1    5250 3250
	1    0    0    -1  
$EndComp
$Comp
L Device:C 22pF2
U 1 1 5CF03D89
P 5550 3250
F 0 "22pF2" H 5665 3296 50  0000 L CNN
F 1 "C" H 5665 3205 50  0000 L CNN
F 2 "Capacitor_THT:C_Disc_D3.0mm_W1.6mm_P2.50mm" H 5588 3100 50  0001 C CNN
F 3 "~" H 5550 3250 50  0001 C CNN
	1    5550 3250
	1    0    0    -1  
$EndComp
Wire Wire Line
	5550 3100 5550 3000
Connection ~ 5550 3000
Wire Wire Line
	5550 3000 5700 3000
Wire Wire Line
	5250 3100 5250 2900
Wire Wire Line
	4850 2900 5250 2900
Connection ~ 5250 2900
$Comp
L power:GND #PWR0101
U 1 1 5CF03E3B
P 4250 5200
F 0 "#PWR0101" H 4250 4950 50  0001 C CNN
F 1 "GND" H 4255 5027 50  0000 C CNN
F 2 "" H 4250 5200 50  0001 C CNN
F 3 "" H 4250 5200 50  0001 C CNN
	1    4250 5200
	1    0    0    -1  
$EndComp
$Comp
L power:GND #PWR0102
U 1 1 5CF03E5E
P 5250 5200
F 0 "#PWR0102" H 5250 4950 50  0001 C CNN
F 1 "GND" H 5255 5027 50  0000 C CNN
F 2 "" H 5250 5200 50  0001 C CNN
F 3 "" H 5250 5200 50  0001 C CNN
	1    5250 5200
	1    0    0    -1  
$EndComp
Wire Wire Line
	5250 3400 5250 5200
$Comp
L power:GND #PWR0103
U 1 1 5CF040B0
P 5550 5200
F 0 "#PWR0103" H 5550 4950 50  0001 C CNN
F 1 "GND" H 5555 5027 50  0000 C CNN
F 2 "" H 5550 5200 50  0001 C CNN
F 3 "" H 5550 5200 50  0001 C CNN
	1    5550 5200
	1    0    0    -1  
$EndComp
Wire Wire Line
	5550 3400 5550 5200
Wire Wire Line
	4250 5000 4250 5200
$Comp
L Switch:SW_Push SW4
U 1 1 5CF04617
P 6900 2100
F 0 "SW4" V 6854 2248 50  0000 L CNN
F 1 "SW_Push" V 6945 2248 50  0000 L CNN
F 2 "Button_Switch_SMD:SW_SPST_CK_RS282G05A3" H 6900 2300 50  0001 C CNN
F 3 "" H 6900 2300 50  0001 C CNN
	1    6900 2100
	0    -1   -1   0   
$EndComp
$Comp
L Switch:SW_Push SW3
U 1 1 5CF04723
P 6650 2100
F 0 "SW3" V 6604 2248 50  0000 L CNN
F 1 "SW_Push" V 6695 2248 50  0000 L CNN
F 2 "Button_Switch_SMD:SW_SPST_CK_RS282G05A3" H 6650 2300 50  0001 C CNN
F 3 "" H 6650 2300 50  0001 C CNN
	1    6650 2100
	0    -1   -1   0   
$EndComp
$Comp
L Switch:SW_Push SW5
U 1 1 5CF0491B
P 7150 2100
F 0 "SW5" V 7104 2248 50  0000 L CNN
F 1 "SW_Push" V 7195 2248 50  0000 L CNN
F 2 "Button_Switch_SMD:SW_SPST_CK_RS282G05A3" H 7150 2300 50  0001 C CNN
F 3 "" H 7150 2300 50  0001 C CNN
	1    7150 2100
	0    -1   -1   0   
$EndComp
$Comp
L Switch:SW_Push SW2
U 1 1 5CF04AB6
P 6400 2100
F 0 "SW2" V 6354 2248 50  0000 L CNN
F 1 "SW_Push" V 6445 2248 50  0000 L CNN
F 2 "Button_Switch_SMD:SW_SPST_CK_RS282G05A3" H 6400 2300 50  0001 C CNN
F 3 "" H 6400 2300 50  0001 C CNN
	1    6400 2100
	0    -1   -1   0   
$EndComp
$Comp
L Switch:SW_Push SW1
U 1 1 5CF04B94
P 6150 2100
F 0 "SW1" V 6104 2248 50  0000 L CNN
F 1 "SW_Push" V 6195 2248 50  0000 L CNN
F 2 "Button_Switch_SMD:SW_SPST_CK_RS282G05A3" H 6150 2300 50  0001 C CNN
F 3 "" H 6150 2300 50  0001 C CNN
	1    6150 2100
	0    -1   -1   0   
$EndComp
Wire Wire Line
	7150 1900 6900 1900
Wire Wire Line
	6900 1900 6650 1900
Connection ~ 6900 1900
Connection ~ 6650 1900
Wire Wire Line
	6650 1900 6400 1900
Connection ~ 6400 1900
Wire Wire Line
	6400 1900 6150 1900
Wire Wire Line
	4250 1900 4250 2000
$Comp
L Switch:SW_Push SW6
U 1 1 5CF04914
P 7400 2100
F 0 "SW6" V 7354 2248 50  0000 L CNN
F 1 "SW_Push" V 7445 2248 50  0000 L CNN
F 2 "Button_Switch_SMD:SW_SPST_CK_RS282G05A3" H 7400 2300 50  0001 C CNN
F 3 "" H 7400 2300 50  0001 C CNN
	1    7400 2100
	0    -1   -1   0   
$EndComp
Wire Wire Line
	7150 1900 7400 1900
Connection ~ 7150 1900
Wire Wire Line
	6150 1900 4250 1900
Connection ~ 6150 1900
Wire Wire Line
	6150 2300 4850 2300
Wire Wire Line
	4850 2400 6400 2400
Wire Wire Line
	6400 2400 6400 2300
Wire Wire Line
	4850 2500 6650 2500
Wire Wire Line
	6650 2500 6650 2300
Wire Wire Line
	4850 2600 6900 2600
Wire Wire Line
	6900 2600 6900 2300
Wire Wire Line
	4900 2700 7150 2700
Wire Wire Line
	7150 2700 7150 2300
Wire Wire Line
	4850 2800 7400 2800
Wire Wire Line
	7400 2800 7400 2300
$Comp
L pspice:R 10K1
U 1 1 5CF098F7
P 6150 3200
F 0 "10K1" H 6218 3246 50  0000 L CNN
F 1 "R" H 6218 3155 50  0000 L CNN
F 2 "Resistor_THT:R_Axial_DIN0204_L3.6mm_D1.6mm_P7.62mm_Horizontal" H 6150 3200 50  0001 C CNN
F 3 "~" H 6150 3200 50  0001 C CNN
	1    6150 3200
	1    0    0    -1  
$EndComp
Wire Wire Line
	6150 2300 6150 2950
Connection ~ 6150 2300
Connection ~ 6400 2400
Connection ~ 6650 2500
Connection ~ 6900 2600
Connection ~ 7150 2700
$Comp
L pspice:R 10K2
U 1 1 5CF0B047
P 6400 3200
F 0 "10K2" H 6468 3246 50  0000 L CNN
F 1 "R" H 6468 3155 50  0000 L CNN
F 2 "Resistor_THT:R_Axial_DIN0204_L3.6mm_D1.6mm_P7.62mm_Horizontal" H 6400 3200 50  0001 C CNN
F 3 "~" H 6400 3200 50  0001 C CNN
	1    6400 3200
	1    0    0    -1  
$EndComp
$Comp
L pspice:R 10K3
U 1 1 5CF0B540
P 6650 3200
F 0 "10K3" H 6718 3246 50  0000 L CNN
F 1 "R" H 6718 3155 50  0000 L CNN
F 2 "Resistor_THT:R_Axial_DIN0204_L3.6mm_D1.6mm_P7.62mm_Horizontal" H 6650 3200 50  0001 C CNN
F 3 "~" H 6650 3200 50  0001 C CNN
	1    6650 3200
	1    0    0    -1  
$EndComp
$Comp
L pspice:R 10K4
U 1 1 5CF0BF28
P 6900 3200
F 0 "10K4" H 6968 3246 50  0000 L CNN
F 1 "R" H 6968 3155 50  0000 L CNN
F 2 "Resistor_THT:R_Axial_DIN0204_L3.6mm_D1.6mm_P7.62mm_Horizontal" H 6900 3200 50  0001 C CNN
F 3 "~" H 6900 3200 50  0001 C CNN
	1    6900 3200
	1    0    0    -1  
$EndComp
$Comp
L pspice:R 10K5
U 1 1 5CF0C421
P 7150 3200
F 0 "10K5" H 7218 3246 50  0000 L CNN
F 1 "R" H 7218 3155 50  0000 L CNN
F 2 "Resistor_THT:R_Axial_DIN0204_L3.6mm_D1.6mm_P7.62mm_Horizontal" H 7150 3200 50  0001 C CNN
F 3 "~" H 7150 3200 50  0001 C CNN
	1    7150 3200
	1    0    0    -1  
$EndComp
Wire Wire Line
	6400 2400 6400 2950
Wire Wire Line
	6650 2500 6650 2950
Wire Wire Line
	6900 2600 6900 2950
Wire Wire Line
	7150 2700 7150 2950
Wire Wire Line
	6150 3450 6150 5200
Wire Wire Line
	6400 3450 6400 5200
Wire Wire Line
	6650 3450 6650 5200
Wire Wire Line
	6900 3450 6900 5200
Wire Wire Line
	7150 3450 7150 5200
$Comp
L power:GND #PWR0104
U 1 1 5CF0FB02
P 6150 5200
F 0 "#PWR0104" H 6150 4950 50  0001 C CNN
F 1 "GND" H 6155 5027 50  0000 C CNN
F 2 "" H 6150 5200 50  0001 C CNN
F 3 "" H 6150 5200 50  0001 C CNN
	1    6150 5200
	1    0    0    -1  
$EndComp
$Comp
L power:GND #PWR0105
U 1 1 5CF10169
P 6400 5200
F 0 "#PWR0105" H 6400 4950 50  0001 C CNN
F 1 "GND" H 6405 5027 50  0000 C CNN
F 2 "" H 6400 5200 50  0001 C CNN
F 3 "" H 6400 5200 50  0001 C CNN
	1    6400 5200
	1    0    0    -1  
$EndComp
$Comp
L power:GND #PWR0106
U 1 1 5CF107D0
P 6650 5200
F 0 "#PWR0106" H 6650 4950 50  0001 C CNN
F 1 "GND" H 6655 5027 50  0000 C CNN
F 2 "" H 6650 5200 50  0001 C CNN
F 3 "" H 6650 5200 50  0001 C CNN
	1    6650 5200
	1    0    0    -1  
$EndComp
$Comp
L power:GND #PWR0107
U 1 1 5CF10E37
P 6900 5200
F 0 "#PWR0107" H 6900 4950 50  0001 C CNN
F 1 "GND" H 6905 5027 50  0000 C CNN
F 2 "" H 6900 5200 50  0001 C CNN
F 3 "" H 6900 5200 50  0001 C CNN
	1    6900 5200
	1    0    0    -1  
$EndComp
$Comp
L power:GND #PWR0108
U 1 1 5CF1149E
P 7150 5200
F 0 "#PWR0108" H 7150 4950 50  0001 C CNN
F 1 "GND" H 7155 5027 50  0000 C CNN
F 2 "" H 7150 5200 50  0001 C CNN
F 3 "" H 7150 5200 50  0001 C CNN
	1    7150 5200
	1    0    0    -1  
$EndComp
Wire Wire Line
	5900 2900 5900 3100
Wire Wire Line
	5250 2900 5900 2900
Wire Wire Line
	5700 3400 5900 3400
Wire Wire Line
	5700 3000 5700 3400
$Comp
L Interface_Optical:TSOP21xx U2
U 1 1 5CF14D34
P 7800 2500
F 0 "U2" V 7741 2788 50  0000 L CNN
F 1 "TSOP21xx" V 7832 2788 50  0000 L CNN
F 2 "OptoDevice:Vishay_MOLD-3Pin" H 7750 2125 50  0001 C CNN
F 3 "http://www.vishay.com/docs/82460/tsop45.pdf" H 8450 2800 50  0001 C CNN
	1    7800 2500
	0    1    1    0   
$EndComp
Wire Wire Line
	7400 1900 8150 1900
Wire Wire Line
	8150 1900 8150 2900
Wire Wire Line
	8150 2900 8000 2900
Connection ~ 7400 1900
Wire Wire Line
	7600 2900 7600 5200
Wire Wire Line
	4850 4200 7800 4200
Wire Wire Line
	7800 4200 7800 2900
$Comp
L LED:LD271 D2
U 1 1 5CF1A159
P 8150 4900
F 0 "D2" V 8146 4822 50  0000 R CNN
F 1 "LD271" V 8055 4822 50  0000 R CNN
F 2 "LED_THT:LED_D5.0mm_IRGrey" H 8150 5075 50  0001 C CNN
F 3 "http://www.alliedelec.com/m/d/40788c34903a719969df15f1fbea1056.pdf" H 8100 4900 50  0001 C CNN
	1    8150 4900
	0    -1   -1   0   
$EndComp
$Comp
L pspice:R R330
U 1 1 5CF1DFA3
P 8150 4550
F 0 "R330" H 8218 4596 50  0000 L CNN
F 1 "R" H 8218 4505 50  0000 L CNN
F 2 "Resistor_THT:R_Axial_DIN0204_L3.6mm_D1.6mm_P7.62mm_Horizontal" H 8150 4550 50  0001 C CNN
F 3 "~" H 8150 4550 50  0001 C CNN
	1    8150 4550
	1    0    0    -1  
$EndComp
$Comp
L power:GND #PWR0109
U 1 1 5CF1F9C0
P 7600 5200
F 0 "#PWR0109" H 7600 4950 50  0001 C CNN
F 1 "GND" H 7605 5027 50  0000 C CNN
F 2 "" H 7600 5200 50  0001 C CNN
F 3 "" H 7600 5200 50  0001 C CNN
	1    7600 5200
	1    0    0    -1  
$EndComp
$Comp
L power:GND #PWR0110
U 1 1 5CF2025F
P 8150 5200
F 0 "#PWR0110" H 8150 4950 50  0001 C CNN
F 1 "GND" H 8155 5027 50  0000 C CNN
F 2 "" H 8150 5200 50  0001 C CNN
F 3 "" H 8150 5200 50  0001 C CNN
	1    8150 5200
	1    0    0    -1  
$EndComp
Wire Wire Line
	8150 5100 8150 5200
$Comp
L power:GND #PWR0111
U 1 1 5CEFD839
P 8500 5200
F 0 "#PWR0111" H 8500 4950 50  0001 C CNN
F 1 "GND" H 8505 5027 50  0000 C CNN
F 2 "" H 8500 5200 50  0001 C CNN
F 3 "" H 8500 5200 50  0001 C CNN
	1    8500 5200
	1    0    0    -1  
$EndComp
$Comp
L Device:Battery BT1
U 1 1 5CEFEC53
P 8500 2150
F 0 "BT1" H 8608 2196 50  0000 L CNN
F 1 "Battery" H 8608 2105 50  0000 L CNN
F 2 "Connector_PinHeader_2.54mm:PinHeader_1x02_P2.54mm_Vertical" V 8500 2210 50  0001 C CNN
F 3 "~" V 8500 2210 50  0001 C CNN
	1    8500 2150
	1    0    0    -1  
$EndComp
Wire Wire Line
	8500 2350 8500 5200
Wire Wire Line
	4850 4300 8150 4300
Wire Wire Line
	4850 4400 7850 4400
$Comp
L Device:LED D1
U 1 1 5CF03194
P 7850 4950
F 0 "D1" V 7888 4833 50  0000 R CNN
F 1 "LED" V 7797 4833 50  0000 R CNN
F 2 "LED_THT:LED_D5.0mm" H 7850 4950 50  0001 C CNN
F 3 "~" H 7850 4950 50  0001 C CNN
	1    7850 4950
	0    -1   -1   0   
$EndComp
Wire Wire Line
	7850 4400 7850 4800
$Comp
L power:GND #PWR0112
U 1 1 5CF04710
P 7850 5200
F 0 "#PWR0112" H 7850 4950 50  0001 C CNN
F 1 "GND" H 7855 5027 50  0000 C CNN
F 2 "" H 7850 5200 50  0001 C CNN
F 3 "" H 7850 5200 50  0001 C CNN
	1    7850 5200
	1    0    0    -1  
$EndComp
Wire Wire Line
	7850 5100 7850 5200
Wire Wire Line
	8150 1900 8500 1900
Wire Wire Line
	8500 1900 8500 1950
Connection ~ 8150 1900
$EndSCHEMATC
